5
1
987
51
1
11
2
3
1474
12
1
2
68
6
4
81
20
2
265
5
35
12
42
94
95
1
68
0
62
15
95
65
31
18
87
22
9
171
112
0
43
139
1
3
1
3
43
127
1
9
19
3281
51
31
4
4
1
18
14
56
25
17
9
2
3206
20
27
139
97
8
32
8
82
1
12
24
2
100
0
102
2
112
28
0
70
12
33
10
61
112
5
8
0
121
1
15
49
3140
1
105
2924
38
75
7
3
98
14
0
8
1
37
1
79
1
12
25
35
4
2
656
17
18
5
2085
1
95
12
2
0
53
18
0
119
34
24
0
28
146
0
4
65
6
53
69
3
675
47
2
25
2
1789
31
4
74
124
0
99
128
34
1
13
299
1
2
29
2
137
18
9
33
74
7
11
68
67
44
5
93
68
13
1566
0
2
50
14
1
125
88
9
4
0
9
54
78
16
31
3
135
0
10
1
48
70
36
15
1
96
6
160
10
20
1
85
0
32
35
106
52
0
111
12
168
8
0
1
0
16
6
74
7
1
86
30
15
86
140
2
1
108
1
57
1
24
3
26
4
6
0
2
23
6
9
7
113
21
110
97
104
3305
4
86
227
89
10
109
6
31
16
1
0
11
78
0
1
0
70
3
2
104
8
108
63
33
48
10
8
19
2
0
52
7
7
23
2
25
79
8
6
101
3
112
33
1
125
40
101
8
2787
34
0
0
0
11
75
179
65
0
47
3
2618
75
5
3
9
16
124
250
4
35
2
0
2
0
2
3
0
0
113
13
188
8
5
2914
58
35
96
2
34
89
127
40
4
43
0
29
884
98
27
2
100
15
14
15
1
13
115
17
3
90
5
4
7
64
86
168
4
90
10
12
4
0
3
27
4
18
15
97
103
18
7
15
55
74
50
2
91
5
71
99
6
6
86
73
2
24
0
22
3
192
12
14
14
4
41
96
15
23
68
14
10
95
118
118
111
53
1
5
3
56
185
3
7
4
9
85
2
1
144
0
8
1
21
122
2
26
6
105
2
16
62
17
120
52
68
126
30
57
85
7
23
120
2
1
170
110
104
240
46
8
14
111
1
18
233
3100
66
9
109
61
16
83
28
1
0
2
29
32
111
7
3
8
48
8
40
6
0
1
18
134
7
128
44
194
12
4
0
4
61
65
82
2
2
143
132
37
4
1
5
102
190
24
13
12
22
138
4
3020
22
13
0
1
51
1
187
687
0
5
118
92
5
7
128
1985
4
25
14
15
66
2
59
133
5
32
61
13
124
103
4
3119
32
39
14
16
9
6
38
100
292
0
0
5
68
61
82
4
122
121
16
4
45
0
59
196
11
21
145
11
4
6
93
76
3
76
92
25
3
174
0
20
10
111
4
102
2
4
131
126
9
0
2
29
121
25
1689
16
1
3
89
4
24
34
84
134
15
33
23
1
16
2
5
31
29
5
117
0
89
16
32
3
1
8
0
30
0
0
194
1733
85
11
9
14
15
0
15
25
8
3
11
117
17
0
117
6
94
14
1
2
25
56
31
17
47
16
3006
94
108
19
1
18
3
122
63
81
40
15
47
35
3
7
4
0
2
116
1
230
0
6
41
37
6
102
74
0
3
10
0
178
7
6
5
0
0
30
75
96
0
206
3
29
22
4
33
2
3
8
3
223
2
181
30
0
0
61
27
0
0
9
2361
10
119
7
1
49
3
47
35
4
7
98
46
58
2
30
4
24
0
77
22
12
68
36
15
7
15
3
0
22
5
60
21
0
5
24
7
57
76
10
3
2
19
2348
54
113
203
63
0
11
3
5
15
92
2152
135
45
41
154
11
227
54
0
130
3
35
30
2
4
134
9
75
11
0
73
1
18
17
0
84
19
948
42
9
2
88
27
2
107
52
0
1
159
1204
72
20
6
91
69
1
122
56
0
116
5
4
39
8
0
62
14
1
71
2
3
426
155
1
170
34
82
32
8
4
118
9
16
8
4
0
0
34
0
0
0
115
5
9
1
19
79
3
2590
118
98
41
55
80
17
76
43
8
20
2
7
1
8
446
2
30
42
3
93
126
32
4
3
1
73
1
69
6
0
41
54
0
193
14
2440
45
15
5
104
3
23
61
84
113
4
85
65
48
8
3
83
17
17
49
118
16
70
1
10
10
145
106
7
25
33
41
1
0
2
6
22
1
15
119
5
25
26
19
124
135
17
38
25
5
1
1
88
0
0
36
36
2
19
9
120
53
30
0
93
13
26
3
3
1
61
34
134
44
10
115
5
4
115
81
24
77
1
14
1
110
1
3292
1
29
63
31
45
108
28
18
13
7
28
47
101
34
143
61
5
43
251
15
23
12
14
121
8
60
14
3
34
1
3
104
14
7
6
5
76
2
17
5
162
17
0
12
24
1
114
0
2
1
8
80
34
11
0
1
1
54
63
9
21
2
2
132
65
0
68
1
5
25
41
67
4
20
64
1419
4
10
0
25
19
7
4
145
4
76
68
13
22
14
3
34
19
27
101
0
93
32
164
0
0
39
41
111
23
115
6
36
19
59
0
0
32
2
102
8
30
4
17
47
1
6
11
4
5
16
5
397
5
125
1
48
156
165
108
18
2
7
59
2289
41
0
97
83
22
24
31
245
9
102
52
0
12
5
4
1
5
2
2
1588
28
6
8
119
0
79
118
0
0
11
21
119
22
2265
60
12
0
3
3011
93
37
13
10
5
90
5
13
14
2148
85
69
4
7
6
75
102
1
0
4
22
1
0
163
18
27
4
49
3
11
7
10
2325
13
1
1
39
0
47
27
65
72
84
1
5
6
27
146
127
15
2344
66
48
104
0
42
1
137
96
0
60
1
263
1
12
0
129
63
52
96
8
1
39
1
306
102
96
4
0
63
5
33
6
14
1
2
47
108
13
119
0
130
22
41
3637
79
32
127
135
6
17
0
24
160
17
40
68
0
4
0
0
30
57
0
13
0
3
87
0
11
187
8
33
11
3
6
68
5
73
110
0
138
12
37
37
1
59
18
135
78
5
121
5
94
77
166
31
8
148
298
9
40
11
587
51
78
4
3
78
16
11
38
31
7
118
0
2887
2
1721
128
1
132
6
17
20
5
185
120
3
33
0
2
110
95
123
34
6
81
88
54
6
93
60
128
4
9
33
1
6
69
67
7
6
58
1
14
298
157
41
2
1
2632
1
29
0
164
3
26
180
3
70
8
3
115
2
86
33
2
3754
7
9
1
34
13
95
9
2
0
2690
5
11
8
2
40
47
46
185
35
124
66
61
34
60
2
56
26
0
1373
70
89
1
89
18
29
81
1
0
150
99
15
0
6
9
6
20
0
75
1
126
47
67
0
28
2
0
20
270
20
9
45
2
16
83
4
71
12
127
29
20
12
134
18
9
113
114
41
2
21
18
2
11
20
44
35
0
3
4
86
2
8
0
8
30
63
124
4
31
6
15
221
44
107
5
125
31
2
41
0
4
84
3
92
109
2
0
2
375
1
79
5
5
1
99
3
1
21
1
57
50
24
7
19
32
117
37
5
3
153
7
0
71
2695
0
115
787
37
3
4
6
52
0
116
2456
83
33
2
1
1
36
6
11
13
1
73
1
198
292
90
83
44
5
129
8
0
17
21
11
248
0
0
104
540
7
7
93
4
20
8
11
3
53
35
4
87
0
8
10
7
52
8
131
94
86
2
1
1
58
198
89
3
84
4
3007
90
33
6
11
7
64
177
36
130
3
15
76
4
2
3710
117
4
53
5
58
65
3
2
3
11
9
30
130
4
52
67
35
96
1949
18
74
50
7
27
113
14
4
0
16
97
3612
3
17
249
66
41
147
14
6
6
81
6
43
12
0
4
15
24
2
179
37
73
75
9
18
5
6
114
0
32
98
7
11
5
665
57
30
30
56
266
7
162
74
9
59
4
24
136
1812
54
30
1160
13
14
3
23
126
72
5
8
10
1
15
89
44
137
138
14
1278
23
42
106
85
91
0
5
11
5
17
136
0
22
295
102
1725
8
112
39
1
2
7
3
82
120
90
0
37
2755
1
42
0
3
24
3
33
2
6
11
1257
45
4
3
2
10
31
4
297
2
14
110
6
18
18
18
167
149
6
3
83
273
147
1
3
3
19
3
74
58
8
4
90
79
78
9
91
1
9
29
0
22
11
1
2
2011
17
19
9
49
10
4
16
13
55
85
101
0
1
10
8
0
10
53
1
33
0
4
87
2
2
253
39
108
38
6
70
4
65
11
49
14
16
3
12
12
4
1
3
16
1
106
59
44
0
12
15
7
2
57
54
3
5
114
5
2
45
2
2
1
10
17
812
27
1
7
6
188
0
7
123
45
25
18
182
17
103
17
82
0
40
0
149
0
89
64
10
1
70
36
10
0
4
166
13
111
9
3553
89
0
6
1
6
132
18
4
3
4
56
4
8
4
10
150
98
2
56
30
2167
85
7
73
72
18
103
8
22
1
8
234
4
10
6
40
115
32
0
1
38
59
26
8
2
6
91
66
77
65
39
257
97
46
4
145
0
19
88
126
1
0
14
53
16
66
4
10
7
54
1
8
81
11
0
18
33
38
15
101
4
2
24
13
118
2
5
74
33
3
1
5
121
7
65
12
0
119
24
17
15
3467
26
29
120
2
31
1
21
100
2218
20
1
78
11
2
56
4
24
5
2
3
5
39
140
115
33
4
2
6
0
0
1
2
14
54
1278
14
121
2
128
90
2
50
0
15
100
133
5
5
78
1
1
53
10
45
17
107
0
52
1
17
112
0
3
154
292
4
1
91
35
40
4
7
25
73
265
109
136
6
0
5
63
68
1
4
6
9
149
1
34
14
15
0
9
45
0
56
125
17
1
1
12
38
4
6
80
18
122
6
1
109
83
5
1
45
4
129
15
16
99
63
15
18
14
77
2
5
1
63
189
11
18
36
96
5
3
13
69
46
72
7
18
3
141
131
0
82
0
0
57
86
13
137
12
68
105
11
58
1
8
3054
3
50
0
28
118
182
23
85
152
19
14
13
47
3
1105
1
19
1
44
6
115
231
43
88
1
84
2411
2
248
53
41
68
77
0
7
47
1
41
20
34
1
60
16
3
67
91
0
58
20
87
49
50
0
0
1
73
114
115
15
2303
1
8
6
4
74
38
1
136
25
22
64
2
7
53
90
0
141
0
94
7
4
68
1
0
17
4
124
6
19
48
197
4
84
60
170
1
29
81
15
13
63
2651
136
9
50
140
196
4
24
17
18
0
103
27
275
2405
5
29
133
64
2
112
114
3
16
32
69
204
129
1368
288
14
26
145
0
6
0
4
0
132
64
5
2
5
3403
0
123
42
30
15
18
19
6
31
19
5
1
4
0
15
32
9
0
1
8
10
6
114
44
2
52
43
3
0
24
8
26
1
12
2
3
122
1
0
1
1971
17
2
7
88
22
0
61
94
6
1315
5
183
3005
16
33
7
120
144
0
0
8
23
3252
2253
17
149
10
1
22
6
20
3
9
2
2380
45
72
6
6
1896
3
0
29
8
41
2
185
90
0
130
4
2
13
66
40
4
10
0
5
41
7
161
112
0
111
3
6
70
92
80
28
13
3
3
1
3
14
35
12
0
36
125
3
3
1
53
99
151
1
75
0
66
23
32
1
0
77
18
43
5
74
3658
51
88
0
93
1
105
131
0
15
0
3
2
9
21
93
8
1
5
32
2
0
82
4
2235
19
2
11
102
9
15
3
271
74
90
5
1
208
0
36
18
8
15
9
2
24
2
30
45
7
0
24
43
0
1
52
7
27
33
14
96
0
5
77
80
8
26
130
1
0
97
3
3
1
12
3541
37
26
44
3090
7
0
1524
62
6
107
6
25
85
126
4
0
101
58
2
74
2
298
61
6
5
30
27
31
5
52
142
5
4
9
20
44
2750
32
120
2
5
248
1
17
0
0
168
37
1
8
18
14
28
85
0
24
0
0
154
6
15
96
131
0
102
1
1
2
4
2
2
34
4
87
58
37
67
4
3227
0
21
7
58
91
86
1
7
0
41
3
3
7
2
53
19
3
3
37
12
102
1
33
177
0
5
5
51
19
12
63
5
136
27
2
91
161
0
51
3574
113
93
68
23
16
68
1
159
6
39
105
110
39
30
82
2
27
32
15
0
34
118
46
11
14
1
0
21
1
52
18
73
3116
13
0
305
65
3
54
6
2
0
2
90
13
2142
9
0
5
2
2
134
5
98
1
115
6
0
85
58
1
26
0
0
134
14
83
96
1
1
40
3
4
89
3
1
22
2
81
56
87
54
1
6
95
8
7
2
33
8
53
87
27
23
5
117
31
1
72
1988
3
62
42
12
1
61
82
15
135
7
1
12
130
9
0
4
1
70
1
1664
4
83
120
143
0
10
819
112
4
0
16
6
0
37
16
56
1
2863
23
35
34
93
39
10
132
3
20
2
304
2
22
3
20
17
88
0
124
232
14
25
113
3665
17
14
58
0
90
66
1
5
0
98
2
0
2
17
7
5
58
179
18
1
4
1
77
86
10
0
5
0
84
73
3
91
79
1
2469
79
4
1
24
47
20
2
13
79
3
4
33
8
42
124
66
10
113
1
380
67
13
0
132
3
0
4
5
7
6
28
156
0
1681
3
7
35
98
49
60
5
24
0
4
30
66
14
83
4
6
8
109
10
112
27
2
244
9
0
112
48
0
8
14
3
12
301
4
131
25
91
0
43
9
35
34
0
33
1
64
112
0
171
26
18
7
66
45
2
41
23
6
94
2
24
157
29
8
119
1308
113
8
2
3
5
45
77
47
0
58
1
23
13
10
145
92
18
55
0
51
0
63
5
5
7
15
4
60
16
1
5
66
3
90
68
1
78
1524
0
11
6
36
0
4
4
6
15
5
5
18
61
19
41
1
35
0
14
9
15
6
2780
45
6
19
4
12
37
67
4
12
65
0
